…
## Let’s simulate a lot

Let’s start with a for loop

``` r
output = vector("list", length = 100)

for (i in 1:100) {
  output[[i]] = sim_mean_sd(30)
}

bind_rows(output)
```

    ## # A tibble: 100 x 2
    ##    mu_hat sigma_hat
    ##     <dbl>     <dbl>
    ##  1   2.40      2.39
    ##  2   2.33      2.88
    ##  3   2.34      2.65
    ##  4   1.01      2.77
    ##  5   2.71      3.17
    ##  6   2.20      3.25
    ##  7   1.29      3.04
    ##  8   2.07      2.79
    ##  9   2.41      3.09
    ## 10   2.65      2.84
    ## # … with 90 more rows
…
